…
``` r
compared_df <- review_cleaning_log(
  raw_data = raw_data, raw_data_uuid = "X_uuid",
  clean_data = clean_data, clean_data_uuid = "X_uuid",
  cleaning_log = cleaning_log2, cleaning_log_uuid = "X_uuid",
  cleaning_log_question_name = "questions",
  cleaning_log_new_value = "new_value", cleaning_log_old_value = "old_value",
  deletion_log = deletaion_log, deletion_log_uuid = "X_uuid",
  check_for_deletion_log = T
)

compared_df
#> # A tibble: 635 × 8
#>    uuid   df.question_name df.change_type df.new_value cl.new_value df.old_value
#>    <chr>  <chr>            <chr>          <chr>        <chr>        <chr>       
#>  1 1a802… air_coolers_nb   change_respon… <NA>         4            <NA>        
#>  2 a3751… air_coolers_nb   change_respon… <NA>         2            <NA>        
#>  3 bdcca… air_coolers_nb   no_action      <NA>         <NA>         <NA>        
#>  4 dd3a9… connection_fees… no_action      <NA>         <NA>         <NA>        
#>  5 9dac8… connection_fees… no_action      <NA>         <NA>         <NA>        
#>  6 2b148… days_available_… no_action      <NA>         <NA>         <NA>        
#>  7 bd2a7… hours_available… no_action      <NA>         <NA>         <NA>        
#>  8 6cb6e… inc_employment_… no_action      <NA>         <NA>         <NA>        
#>  9 52055… level_service_w… no_action      <NA>         <NA>         <NA>        
#> 10 7f7a6… pay_water_charg… no_action      <NA>         <NA>         <NA>        
#> # ℹ 625 more rows
#> # ℹ 2 more variables: cl.old_value <chr>, comment <chr>
```
…
