Add information to the cleaning log — add_info_to_cleaning_log • cleaningtools
…
    Value

    A list with cleaning log with added info and the dataset.

    Examples

cleaningtools::cleaningtools_raw_data |>
  check_pii(uuid_column = "X_uuid") |>
  check_duplicate(uuid_column = "X_uuid") |>
  check_value(uuid_column = "X_uuid") |>
  create_combined_log() |>
  add_info_to_cleaning_log(dataset_uuid_column = "X_uuid")
#> List of element to combine- checked_dataset, potential_PII, duplicate_log, flaged_value
#> $checked_dataset
#> # A tibble: 632 × 348
#>    X.U.FEFF.start    end   date_assessment deviceid enumerator_num neighbourhood
#>    <chr>             <chr> <chr>           <chr>             <int> <chr>        
#>  1 2021-07-05T10:58… 2021… 2021-07-05      collect…             13 A2           
#>  2 2021-07-05T10:08… 2021… 2021-07-05      collect…             13 A2           
#>  3 2021-07-05T11:22… 2021… 2021-07-05      collect…              8 A2           
#>  4 2021-07-04T22:22… 2021… 2021-07-04      collect…             15 A2           
#>  5 2021-07-04T23:11… 2021… 2021-07-04      collect…             15 A2           
#>  6 2021-07-05T10:17… 2021… 2021-07-05      collect…             14 A2           
#>  7 2021-07-05T11:38… 2021… 2021-07-05      collect…              4 A4           
#>  8 2021-07-05T11:01… 2021… 2021-07-05      collect…             16 A2           
#>  9 2021-07-05T11:45… 2021… 2021-07-05      collect…             16 A2           
#> 10 2021-07-05T10:19… 2021… 2021-07-05      collect…              8 A2           
#> # ℹ 622 more rows
#> # ℹ 342 more variables: consent_remote <chr>, hhh_r <chr>,
#> #   will_to_response_r <chr>, age_respondent_r <int>, age_hoh <int>,
#> #   gender_hoh <chr>, displace_status <chr>, displace_status_returnee <chr>,
#> #   return_date <chr>, num_hh_member <int>, hh_hosting <chr>,
#> #   num_hh_hosting <int>, hh_hosted <chr>, shelter_occupation <chr>,
#> #   shelter_occupation_other <chr>, property_title <chr>, …
…
