implement cleaning log on raw data set. — create_clean_data • cleaningtools
…
#> [1] "return_date"
#> [1] "treat_drink_water"
#> [1] "treat_drink_water"
#> [1] "treat_drink_water_how.filter"
#> [1] "treat_drink_water_how.expose_sunlight"
#> [1] "return_date"
#> [1] "return_date"
#> [1] "return_date"
#> [1] "return_date"
#> [1] "return_date"
#> [1] "return_date"
#> [1] "return_date"
#> [1] "return_date"
#> [1] "return_date"
#> # A tibble: 578 × 348
#>    X.U.FEFF.start    end   date_assessment deviceid enumerator_num neighbourhood
#>    <chr>             <chr> <chr>           <chr>             <int> <chr>        
#>  1 2021-07-06T11:19… 2021… 2021-07-06      collect…              5 frgdf        
#>  2 2021-07-06T12:15… 2021… 2021-07-06      collect…              5 frgdf        
#>  3 2021-07-06T11:35… 2021… 2021-07-06      collect…             16 Bccccccc_1   
#>  4 2021-07-06T13:30… 2021… 2021-07-06      collect…              5 frgdf        
#>  5 2021-07-06T12:29… 2021… 2021-07-06      collect…             16 Bccccccc_1   
#>  6 2021-07-06T14:27… 2021… 2021-07-06      collect…              5 frgdf        
#>  7 2021-07-06T13:15… 2021… 2021-07-06      collect…             16 Bx1          
#>  8 2021-07-06T14:26… 2021… 2021-07-06      collect…             16 Bx1          
#>  9 2021-07-05T23:39… 2021… 2021-07-05      collect…             15 Bccccccc_1   
#> 10 2021-07-06T00:30… 2021… 2021-07-06      collect…             15 Bccccccc_1   
#> # ℹ 568 more rows
#> # ℹ 342 more variables: consent_remote <chr>, hhh_r <chr>,
#> #   will_to_response_r <chr>, age_respondent_r <int>, age_hoh <int>,
#> #   gender_hoh <chr>, displace_status <chr>, displace_status_returnee <chr>,
#> #   return_date <chr>, num_hh_member <int>, hh_hosting <chr>,
#> #   num_hh_hosting <int>, hh_hosted <chr>, shelter_occupation <chr>,
#> #   shelter_occupation_other <chr>, property_title <chr>, …
…
