Data cleaning check and review • cleaningtools
…
Review of others re-coding

This is the summary of the review of the text correction.

## # A tibble: 1 × 2
##   issue                                                                        n
##   <chr>                                                                    <int>
## 1 consent_telephone_number is selected but telephone_number is not found …   521

Review of the data and sampling frame

## # A tibble: 42 × 6
##    Managed.by Governorate Neighbourhood Total.no.of.HH Collected Remaining
##    <chr>      <chr>       <chr>                  <dbl>     <dbl>     <dbl>
##  1 Talafar    Ninewa      A1                        22        22         0
##  2 Talafar    Ninewa      A2                        19        19         0
##  3 Talafar    Ninewa      A3                         5         5         0
##  4 Talafar    Ninewa      A4                         6         6         0
##  5 Talafar    Ninewa      B1                        12        12         0
##  6 Talafar    Ninewa      B2                        15        15         0
##  7 Talafar    Ninewa      B3                         5         5         0
##  8 Talafar    Ninewa      B4                         2         2         0
##  9 Talafar    Ninewa      c                         27        27         0
## 10 Talafar    Ninewa      Bx1                       13        13         0
## # ℹ 32 more rows
…
